id; Area_mean; Area_std; Perimeter_mean; Perimeter_std; Circularity_mean; Circularity_std; Eccentricity_mean; Eccentricity_std; Solidity_mean; Solidity_std 
1;99.11894273127753;1297.1220970869722;25.14315001980826;246.5263483666924;2.2087679810269814;6.465674626006285;0.5867747153164599;0.4273067246648875;0.9255884355823047;0.13617979477974448
2;750.0;3972.0779784222095;37.66023928562288;166.09009502868977;1.5872602516365575;4.6424254003603584;0.517781745914642;0.44152914244145003;0.9721682473329456;0.05339661334456295
3;775.8620689655172;4030.423719695656;42.1151788675061;182.0703264270032;2.8564435774495975;8.081371982461858;0.5317975486748752;0.45180592529700947;0.9502987687473616;0.11828235593674483
4;368.8524590163934;2783.7930417944385;28.98427481981254;172.44399482838077;1.191118733867526;1.319585085706468;0.6862847813877068;0.4041379859653066;0.93773826790582;0.10297962211977678
5;1071.4285714285713;4688.896819909252;50.08039921628897;177.39953041883876;2.439555372243139;5.415150673923401;0.7608257039342989;0.3543263318401537;0.9497915727033375;0.0738165189859805
6;218.44660194174756;2098.981878616463;22.59702572367428;166.4449410870931;1.7240855132363537;4.099919411084859;0.6186328411376818;0.40831429300767813;0.9490676004586068;0.09106939676998331
7;292.2077922077922;2303.8515652585943;35.02915470385612;205.78894732263228;2.7684911566192074;7.359793084487554;0.6333985285926631;0.4197940752778711;0.9347248064701371;0.09989883227099154
8;229.59183673469389;2021.8641925200084;41.011668781446474;250.09662272652332;1.9022903201963508;5.405268101092376;0.7329877556221575;0.358545962119137;0.8817616979672555;0.14492805718244073
9;300.0;1951.2280304123008;70.04734387917254;334.21419710368536;1.7537605355401271;4.765076480263209;0.6682983423174843;0.3892612595838618;0.8914845465500211;0.14766128431325606
10;1071.4285714285713;4750.284508486268;41.66081906476311;168.94619623144354;2.95766629305644;8.121908831727012;0.5430629494470592;0.4638270624400413;0.9764019102590531;0.05226527661689795
11;459.18367346938777;3090.0227505500857;30.305233813619456;167.2292181290171;4.268485215961627;9.29513096984836;0.629634097271148;0.45636077180601914;0.9635062617209891;0.07537017650396209
12;212.26415094339623;1670.8989180603428;46.32280892882267;274.1931435845419;1.2073015606421282;3.9421693182389745;0.6547188493920841;0.4139992917533698;0.9261444336313218;0.11081213673399025
13;1406.25;5388.685814973815;56.0437206768976;190.28018076247153;0.6485880132743702;0.9410530039419658;0.6507816748098364;0.43126070265344396;0.9682886135589532;0.06907299145492445
14;316.90140845070425;2478.476043322178;37.83602268407224;215.90213715970197;1.4144997576819884;3.381111262460853;0.6011655970804278;0.41416602556641346;0.8992554287924023;0.1420741603600439
15;1500.0;5560.185152792426;55.63242182631767;183.8658907143771;3.216785388432851;9.264609267833038;0.6713546400884102;0.3972236159618378;0.9664150471442138;0.08184119325470272
